…
  - Two categories ‘model’ and “market\_category”doesn’t show up in the
    plot because they have high number of levels .
  - ‘model’ has very high unique values of 915 and they are simply the
    model type.
  - We can remove ‘model’ for modeling.
  - ‘market\_category’ has 72 unique values. Let’s take a look.

<!-- end list -->

``` r
car_prices_tbl %>% 
  count(market_category, sort = TRUE) 
```

    ## # A tibble: 72 x 2
    ##    market_category             n
    ##    <fct>                   <int>
    ##  1 N/A                      3742
    ##  2 Crossover                1110
    ##  3 Flex Fuel                 872
    ##  4 Luxury                    855
    ##  5 Luxury,Performance        673
    ##  6 Hatchback                 641
    ##  7 Performance               601
    ##  8 Crossover,Luxury          410
    ##  9 Luxury,High-Performance   334
    ## 10 Exotic,High-Performance   261
    ## # ... with 62 more rows
…
